^D:\DATA F1KAR\MYGL\Z-GENEALLEDGER\Z-GENEALLEDGER\FORM\FRMRPTREKAPPERKIRAAN.RESX
^D:\DATA F1KAR\MYGL\Z-GENEALLEDGER\Z-GENEALLEDGER\FORM\FRMRPTTOTALNERACA.RESX
^D:\DATA F1KAR\MYGL\Z-GENEALLEDGER\Z-GENEALLEDGER\FORM\FRMRPTLOSTPROFIT.RESX
^D:\DATA F1KAR\MYGL\Z-GENEALLEDGER\Z-GENEALLEDGER\FORM\FRMBANKINBROWSE.RESX
^D:\DATA F1KAR\MYGL\Z-GENEALLEDGER\Z-GENEALLEDGER\FORM\FRMBANKINDETAIL.RESX
^D:\DATA F1KAR\MYGL\Z-GENEALLEDGER\Z-GENEALLEDGER\FORM\FRMBANKOUTBROWSE.RESX
^D:\DATA F1KAR\MYGL\Z-GENEALLEDGER\Z-GENEALLEDGER\FORM\FRMBANKOUTDETAIL.RESX
^D:\DATA F1KAR\MYGL\Z-GENEALLEDGER\Z-GENEALLEDGER\FORM\FRMGROUPCOABROWSE.RESX
^D:\DATA F1KAR\MYGL\Z-GENEALLEDGER\Z-GENEALLEDGER\FORM\DEMOMASTERDETAIL.RESX
^D:\DATA F1KAR\MYGL\Z-GENEALLEDGER\Z-GENEALLEDGER\FORM\FRMGROUPCOADETAIL.RESX
^D:\DATA F1KAR\MYGL\Z-GENEALLEDGER\Z-GENEALLEDGER\FORM\FRMKASINBROWSE.RESX
^D:\DATA F1KAR\MYGL\Z-GENEALLEDGER\Z-GENEALLEDGER\FORM\FRMKASOUTBROWSE.RESX
^D:\DATA F1KAR\MYGL\Z-GENEALLEDGER\Z-GENEALLEDGER\FORM\FRMKASOUTDETAIL.RESX
^D:\DATA F1KAR\MYGL\Z-GENEALLEDGER\Z-GENEALLEDGER\FORM\FRMKASBANKTRANSFERBROWSE.RESX
^D:\DATA F1KAR\MYGL\Z-GENEALLEDGER\Z-GENEALLEDGER\FORM\FRMKASBANKTRANSFERDETAIL.RESX
^D:\DATA F1KAR\MYGL\Z-GENEALLEDGER\Z-GENEALLEDGER\FORM\FRMCOABROWSE.RESX
^D:\DATA F1KAR\MYGL\Z-GENEALLEDGER\Z-GENEALLEDGER\FORM\FRMCOADETAIL.RESX
^D:\DATA F1KAR\MYGL\Z-GENEALLEDGER\Z-GENEALLEDGER\FORM\FRMCOAGROUPBROWSE.RESX
^D:\DATA F1KAR\MYGL\Z-GENEALLEDGER\Z-GENEALLEDGER\FORM\FRMCONNECTION.RESX
^D:\DATA F1KAR\MYGL\Z-GENEALLEDGER\Z-GENEALLEDGER\FORM\FRMFINDCOA.RESX
^D:\DATA F1KAR\MYGL\Z-GENEALLEDGER\Z-GENEALLEDGER\FORM\FRMJURNALSESUAIBROWSE.RESX
^D:\DATA F1KAR\MYGL\Z-GENEALLEDGER\Z-GENEALLEDGER\FORM\FRMJURNALSESUAIDETAIL.RESX
^D:\DATA F1KAR\MYGL\Z-GENEALLEDGER\Z-GENEALLEDGER\FORM\FRMJURNALUMUMBROWSE.RESX
^D:\DATA F1KAR\MYGL\Z-GENEALLEDGER\Z-GENEALLEDGER\FORM\FRMMAIN.RESX
^D:\DATA F1KAR\MYGL\Z-GENEALLEDGER\Z-GENEALLEDGER\FORM\FRMPOSTING.RESX
^D:\DATA F1KAR\MYGL\Z-GENEALLEDGER\Z-GENEALLEDGER\FORM\FRMREPORT.RESX
^D:\DATA F1KAR\MYGL\Z-GENEALLEDGER\Z-GENEALLEDGER\FORM\FRMRPTNERACA.RESX
^D:\DATA F1KAR\MYGL\Z-GENEALLEDGER\Z-GENEALLEDGER\FORM\FRMSETTINGCOABROWSE.RESX
^D:\DATA F1KAR\MYGL\Z-GENEALLEDGER\Z-GENEALLEDGER\FORM\FRMSETTINGCOADETAIL.RESX
^D:\DATA F1KAR\MYGL\Z-GENEALLEDGER\Z-GENEALLEDGER\FORM\FRMSETTINGPERIODEACCT.RESX
^D:\DATA F1KAR\MYGL\Z-GENEALLEDGER\Z-GENEALLEDGER\FORM\FRMUNPOSTING.RESX
^D:\DATA F1KAR\MYGL\Z-GENEALLEDGER\Z-GENEALLEDGER\MY PROJECT\RESOURCES.RESX
^D:\DATA F1KAR\MYGL\Z-GENEALLEDGER\Z-GENEALLEDGER\FORM\FRMPEMBAYARAN.RESX
C:\WINDOWS\ASSEMBLY\PUBPOL61.DAT
C:\WINDOWS\MICROSOFT.NET\ASSEMBLY\GAC_MSIL\MICROSOFT.BUILD.TASKS.V4.0\V4.0_4.0.0.0__B03F5F7F11D50A3A\MICROSOFT.BUILD.TASKS.V4.0.DLL
^D:\DATA F1KAR\MYGL\Z-GENEALLEDGER\Z-GENEALLEDGER\FORM\FRMJURNALUMUMDETAIL.RESX
^D:\DATA F1KAR\MYGL\Z-GENEALLEDGER\Z-GENEALLEDGER\FORM\FRMKASINDETAIL.RESX
